﻿2018-09-01 7-ELEVEN 100                                                                                    
2018-09-04 CIRCLE_K 100                                                                                    
2018-09-07 TELIA    100                                                                                    
2018-09-09 NETTO                                                                                        
2018-09-13 CIRCLE_K 100                                                                                    
2018-09-16 TELIA    100                                                                                    
2018-09-19 7-ELEVEN 100                                                                                    
2018-09-2 CIRCLE_K 100                                                                                    
2018-09-25 TELIA    -100                                                                                    
2018-09-28 7-ELEVEN 100                                                                                    
2018-09-38 CIRCLE_K 100                                                                                     
                                                                                                           
2018-10-01 7-ELEVEN 100                                                                                    
2018-10-04 CIRCLE_K 100                                                                                    
2018-10-07 TELIA    hundred                                                                                    
2018-10-10 NETTO    100                                                                                    
2018-10-13 CIRCLE_K                                                                                     
2018-10-116 TELIA    100                                                                                    
2018-10-19 7-ELEVEN 100                                                                                    
2018-10-22 CIRCLE_K 100                                                                                    
 TELIA    100                                                                                    
2018-10-28 7-ELEVEN 100                                                                                    
2018-10-30 CIRCLE_K 100 